{
    "shared/video/1.mp4": {
        "title": "TV Iberogast",
        "tags": "video iberogast"
    },
    "shared/video/2.mp4": {
        "title": "TV Gine-canestén",
        "tags": "video Gine-canesten"
    },
    "shared/video/3.mp4": {
        "title": "TV Ginecanesbalance",
        "tags": "video Ginecanesbalance"
    },
    "shared/video/8.mp4": {
        "title": "TV Bepanthol Calm Crema + Bepanthol Sensidaily",
        "tags": "video Bepanthol Calm Crema Sensidaily"
    },
    "shared/video/9.mp4": {
        "title": "20 Reunión anual de Gastroenterología",
        "tags": "20 Reunión gastroenterología"
    },
    "shared/video/10.mp4": {
        "title": "TV Canespie Bifonazol",
        "tags": "video Canespue Bifonazol"
    },    
    "shared/pdf/vademecum_formadores.pdf": {
        "title": "Vademecum de formación",
        "tags": "document pdf publication"
    },
    "shared/pdf/azul_c4-2017_11sep.pdf": {
        "title": "Precios Mac Azul",
        "tags": "document pdf publication"
    },
    "shared/pdf/verde_c2-2017_7mar.pdf": {
        "title": "Precios Mac Verde",
        "tags": "document pdf publication"
    },
    "shared/pdf/PDF_Formación_berroca.pdf": {
        "title": "Formación Berocca",
        "tags": "document pdf publication"
    },    
    "shared/pdf/lista_alergenos.pdf": {
        "title": "Lista de alergenos",
        "tags": "document pdf publication"
    }    
}